%YAML 1.1
%TAG !u! tag:unity3d.com,2011:
--- !u!1 &394168726583065234
GameObject:
  m_ObjectHideFlags: 0
  m_CorrespondingSourceObject: {fileID: 0}
  m_PrefabInstance: {fileID: 0}
  m_PrefabAsset: {fileID: 0}
  serializedVersion: 6
  m_Component:
  - component: {fileID: 3632743266059965259}
  - component: {fileID: 1909363572838665338}
  - component: {fileID: 4634253361698768811}
  - component: {fileID: 7946915196312891819}
  m_Layer: 0
  m_Name: Cube
  m_TagString: Untagged
  m_Icon: {fileID: 0}
  m_NavMeshLayer: 0
  m_StaticEditorFlags: 0
  m_IsActive: 1
--- !u!4 &3632743266059965259
Transform:
  m_ObjectHideFlags: 0
  m_CorrespondingSourceObject: {fileID: 0}
  m_PrefabInstance: {fileID: 0}
  m_PrefabAsset: {fileID: 0}
  m_GameObject: {fileID: 394168726583065234}
  m_LocalRotation: {x: 0, y: 0, z: 0, w: 1}
  m_LocalPosition: {x: 0, y: 0.5, z: -1.2}
  m_LocalScale: {x: 1, y: 1, z: 1}
  m_ConstrainProportionsScale: 0
  m_Children: []
  m_Father: {fileID: 5101824922567637550}
  m_RootOrder: -1
  m_LocalEulerAnglesHint: {x: 0, y: 0, z: 0}
--- !u!33 &1909363572838665338
MeshFilter:
  m_ObjectHideFlags: 0
  m_CorrespondingSourceObject: {fileID: 0}
  m_PrefabInstance: {fileID: 0}
  m_PrefabAsset: {fileID: 0}
  m_GameObject: {fileID: 394168726583065234}
  m_Mesh: {fileID: 10202, guid: 0000000000000000e000000000000000, type: 0}
--- !u!23 &4634253361698768811
MeshRenderer:
  m_ObjectHideFlags: 0
  m_CorrespondingSourceObject: {fileID: 0}
  m_PrefabInstance: {fileID: 0}
  m_PrefabAsset: {fileID: 0}
  m_GameObject: {fileID: 394168726583065234}
  m_Enabled: 1
  m_CastShadows: 1
  m_ReceiveShadows: 1
  m_DynamicOccludee: 1
  m_StaticShadowCaster: 0
  m_MotionVectors: 1
  m_LightProbeUsage: 1
  m_ReflectionProbeUsage: 1
  m_RayTracingMode: 2
  m_RayTraceProcedural: 0
  m_RenderingLayerMask: 1
  m_RendererPriority: 0
  m_Materials:
  - {fileID: 2100000, guid: 31321ba15b8f8eb4c954353edc038b1d, type: 2}
  m_StaticBatchInfo:
    firstSubMesh: 0
    subMeshCount: 0
  m_StaticBatchRoot: {fileID: 0}
  m_ProbeAnchor: {fileID: 0}
  m_LightProbeVolumeOverride: {fileID: 0}
  m_ScaleInLightmap: 1
  m_ReceiveGI: 1
  m_PreserveUVs: 0
  m_IgnoreNormalsForChartDetection: 0
  m_ImportantGI: 0
  m_StitchLightmapSeams: 1
  m_SelectedEditorRenderState: 3
  m_MinimumChartSize: 4
  m_AutoUVMaxDistance: 0.5
  m_AutoUVMaxAngle: 89
  m_LightmapParameters: {fileID: 0}
  m_SortingLayerID: 0
  m_SortingLayer: 0
  m_SortingOrder: 0
  m_AdditionalVertexStreams: {fileID: 0}
--- !u!65 &7946915196312891819
BoxCollider:
  m_ObjectHideFlags: 0
  m_CorrespondingSourceObject: {fileID: 0}
  m_PrefabInstance: {fileID: 0}
  m_PrefabAsset: {fileID: 0}
  m_GameObject: {fileID: 394168726583065234}
  m_Material: {fileID: 0}
  m_IncludeLayers:
    serializedVersion: 2
    m_Bits: 0
  m_ExcludeLayers:
    serializedVersion: 2
    m_Bits: 0
  m_LayerOverridePriority: 0
  m_IsTrigger: 0
  m_ProvidesContacts: 0
  m_Enabled: 1
  serializedVersion: 3
  m_Size: {x: 1, y: 1, z: 1}
  m_Center: {x: 0, y: 0, z: 0}
--- !u!1001 &7374343973773472652
PrefabInstance:
  m_ObjectHideFlags: 0
  serializedVersion: 2
  m_Modification:
    serializedVersion: 3
    m_TransformParent: {fileID: 0}
    m_Modifications:
    - target: {fileID: -2644470469296620395, guid: 7ee534293f55e9949818943f08a97511,
        type: 3}
      propertyPath: _positionModifier.z
      value: -1
      objectReference: {fileID: 0}
    - target: {fileID: 2349678859630707421, guid: 7ee534293f55e9949818943f08a97511,
        type: 3}
      propertyPath: m_LocalPosition.z
      value: -0.5
      objectReference: {fileID: 0}
    - target: {fileID: 2349678860488903074, guid: 7ee534293f55e9949818943f08a97511,
        type: 3}
      propertyPath: m_RootOrder
      value: 0
      objectReference: {fileID: 0}
    - target: {fileID: 2349678860488903074, guid: 7ee534293f55e9949818943f08a97511,
        type: 3}
      propertyPath: m_LocalPosition.x
      value: 0
      objectReference: {fileID: 0}
    - target: {fileID: 2349678860488903074, guid: 7ee534293f55e9949818943f08a97511,
        type: 3}
      propertyPath: m_LocalPosition.y
      value: 0
      objectReference: {fileID: 0}
    - target: {fileID: 2349678860488903074, guid: 7ee534293f55e9949818943f08a97511,
        type: 3}
      propertyPath: m_LocalPosition.z
      value: 0
      objectReference: {fileID: 0}
    - target: {fileID: 2349678860488903074, guid: 7ee534293f55e9949818943f08a97511,
        type: 3}
      propertyPath: m_LocalRotation.w
      value: 1
      objectReference: {fileID: 0}
    - target: {fileID: 2349678860488903074, guid: 7ee534293f55e9949818943f08a97511,
        type: 3}
      propertyPath: m_LocalRotation.x
      value: 0
      objectReference: {fileID: 0}
    - target: {fileID: 2349678860488903074, guid: 7ee534293f55e9949818943f08a97511,
        type: 3}
      propertyPath: m_LocalRotation.y
      value: 0
      objectReference: {fileID: 0}
    - target: {fileID: 2349678860488903074, guid: 7ee534293f55e9949818943f08a97511,
        type: 3}
      propertyPath: m_LocalRotation.z
      value: 0
      objectReference: {fileID: 0}
    - target: {fileID: 2349678860488903074, guid: 7ee534293f55e9949818943f08a97511,
        type: 3}
      propertyPath: m_LocalEulerAnglesHint.x
      value: 0
      objectReference: {fileID: 0}
    - target: {fileID: 2349678860488903074, guid: 7ee534293f55e9949818943f08a97511,
        type: 3}
      propertyPath: m_LocalEulerAnglesHint.y
      value: 0
      objectReference: {fileID: 0}
    - target: {fileID: 2349678860488903074, guid: 7ee534293f55e9949818943f08a97511,
        type: 3}
      propertyPath: m_LocalEulerAnglesHint.z
      value: 0
      objectReference: {fileID: 0}
    - target: {fileID: 2349678860488903075, guid: 7ee534293f55e9949818943f08a97511,
        type: 3}
      propertyPath: _centerCellPosition.z
      value: 0
      objectReference: {fileID: 0}
    - target: {fileID: 2349678860488903075, guid: 7ee534293f55e9949818943f08a97511,
        type: 3}
      propertyPath: _grid._takenCells.Array.size
      value: 1
      objectReference: {fileID: 0}
    - target: {fileID: 2349678860488903075, guid: 7ee534293f55e9949818943f08a97511,
        type: 3}
      propertyPath: _grid._createdCells.Array.size
      value: 1
      objectReference: {fileID: 0}
    - target: {fileID: 2349678860488903075, guid: 7ee534293f55e9949818943f08a97511,
        type: 3}
      propertyPath: _grid._canBeAtatchedToTakenCell
      value: 1
      objectReference: {fileID: 0}
    - target: {fileID: 2349678860488903075, guid: 7ee534293f55e9949818943f08a97511,
        type: 3}
      propertyPath: _grid._requiredCells.Array.size
      value: 1
      objectReference: {fileID: 0}
    - target: {fileID: 2349678860488903075, guid: 7ee534293f55e9949818943f08a97511,
        type: 3}
      propertyPath: _grid._takenCells.Array.data[0].partEnd.x
      value: 1
      objectReference: {fileID: 0}
    - target: {fileID: 2349678860488903075, guid: 7ee534293f55e9949818943f08a97511,
        type: 3}
      propertyPath: _grid._takenCells.Array.data[0].partEnd.y
      value: 1
      objectReference: {fileID: 0}
    - target: {fileID: 2349678860488903075, guid: 7ee534293f55e9949818943f08a97511,
        type: 3}
      propertyPath: _grid._takenCells.Array.data[0].partEnd.z
      value: -1
      objectReference: {fileID: 0}
    - target: {fileID: 2349678860488903075, guid: 7ee534293f55e9949818943f08a97511,
        type: 3}
      propertyPath: _grid._createdCells.Array.data[0].partEnd.x
      value: 1
      objectReference: {fileID: 0}
    - target: {fileID: 2349678860488903075, guid: 7ee534293f55e9949818943f08a97511,
        type: 3}
      propertyPath: _grid._createdCells.Array.data[0].partEnd.y
      value: 2
      objectReference: {fileID: 0}
    - target: {fileID: 2349678860488903075, guid: 7ee534293f55e9949818943f08a97511,
        type: 3}
      propertyPath: _grid._createdCells.Array.data[0].partEnd.z
      value: 0
      objectReference: {fileID: 0}
    - target: {fileID: 2349678860488903075, guid: 7ee534293f55e9949818943f08a97511,
        type: 3}
      propertyPath: _grid._requiredCells.Array.data[0].partEnd.x
      value: 1
      objectReference: {fileID: 0}
    - target: {fileID: 2349678860488903075, guid: 7ee534293f55e9949818943f08a97511,
        type: 3}
      propertyPath: _grid._requiredCells.Array.data[0].partEnd.y
      value: 1
      objectReference: {fileID: 0}
    - target: {fileID: 2349678860488903075, guid: 7ee534293f55e9949818943f08a97511,
        type: 3}
      propertyPath: _grid._requiredCells.Array.data[0].partEnd.z
      value: 0
      objectReference: {fileID: 0}
    - target: {fileID: 2349678860488903075, guid: 7ee534293f55e9949818943f08a97511,
        type: 3}
      propertyPath: _grid._takenCells.Array.data[0].partBegining.z
      value: -1
      objectReference: {fileID: 0}
    - target: {fileID: 2349678860488903075, guid: 7ee534293f55e9949818943f08a97511,
        type: 3}
      propertyPath: _grid._createdCells.Array.data[0].partBegining.y
      value: 2
      objectReference: {fileID: 0}
    - target: {fileID: 2349678860488903075, guid: 7ee534293f55e9949818943f08a97511,
        type: 3}
      propertyPath: _grid._createdCells.Array.data[0].partBegining.z
      value: -1
      objectReference: {fileID: 0}
    - target: {fileID: 2349678860488903075, guid: 7ee534293f55e9949818943f08a97511,
        type: 3}
      propertyPath: _grid._requiredCells.Array.data[0].partBegining.z
      value: 0
      objectReference: {fileID: 0}
    - target: {fileID: 2349678860488903085, guid: 7ee534293f55e9949818943f08a97511,
        type: 3}
      propertyPath: m_Name
      value: WallAtachedStoneMain
      objectReference: {fileID: 0}
    - target: {fileID: 3089266683153701354, guid: 7ee534293f55e9949818943f08a97511,
        type: 3}
      propertyPath: _resourceGeneratorData
      value: 
      objectReference: {fileID: 11400000, guid: 4d7c1f0777c49214f862100a4ebacb91,
        type: 2}
    - target: {fileID: 5885556629595790152, guid: 7ee534293f55e9949818943f08a97511,
        type: 3}
      propertyPath: m_LocalPosition.z
      value: -1
      objectReference: {fileID: 0}
    - target: {fileID: 6814686338369776379, guid: 7ee534293f55e9949818943f08a97511,
        type: 3}
      propertyPath: _storageData
      value: 
      objectReference: {fileID: 11400000, guid: 199eeda02d1c9bd4e992f811509b4467,
        type: 2}
    - target: {fileID: 8554336090491672410, guid: 7ee534293f55e9949818943f08a97511,
        type: 3}
      propertyPath: _constructionCost
      value: 
      objectReference: {fileID: 11400000, guid: f70593f8a6a089e478eede8864592dbc,
        type: 2}
    m_RemovedComponents: []
    m_RemovedGameObjects: []
    m_AddedGameObjects:
    - targetCorrespondingSourceObject: {fileID: 2349678860488903074, guid: 7ee534293f55e9949818943f08a97511,
        type: 3}
      insertIndex: -1
      addedObject: {fileID: 3632743266059965259}
    m_AddedComponents: []
  m_SourcePrefab: {fileID: 100100000, guid: 7ee534293f55e9949818943f08a97511, type: 3}
--- !u!4 &5101824922567637550 stripped
Transform:
  m_CorrespondingSourceObject: {fileID: 2349678860488903074, guid: 7ee534293f55e9949818943f08a97511,
    type: 3}
  m_PrefabInstance: {fileID: 7374343973773472652}
  m_PrefabAsset: {fileID: 0}
