%YAML 1.1
%TAG !u! tag:unity3d.com,2011:
--- !u!114 &11400000
MonoBehaviour:
  m_ObjectHideFlags: 0
  m_CorrespondingSourceObject: {fileID: 0}
  m_PrefabInstance: {fileID: 0}
  m_PrefabAsset: {fileID: 0}
  m_GameObject: {fileID: 0}
  m_Enabled: 1
  m_EditorHideFlags: 0
  m_Script: {fileID: 11500000, guid: b48945db559cd7645884d63a41762e24, type: 3}
  m_Name: FoodDefinition
  m_EditorClassIdentifier: 
  ResourceType: 5
  Name: Food
  Description: 
  Icon: {fileID: 0}
  HasLimitedCapacity: 1
  CanBeReserved: 0
