%YAML 1.1
%TAG !u! tag:unity3d.com,2011:
--- !u!114 &11400000
MonoBehaviour:
  m_ObjectHideFlags: 0
  m_CorrespondingSourceObject: {fileID: 0}
  m_PrefabInstance: {fileID: 0}
  m_PrefabAsset: {fileID: 0}
  m_GameObject: {fileID: 0}
  m_Enabled: 1
  m_EditorHideFlags: 0
  m_Script: {fileID: 11500000, guid: b33e61b4da016ed469e46c8d1a60e8f7, type: 3}
  m_Name: StoneMineGenerationData
  m_EditorClassIdentifier: 
  timerTicksToComplete: 4
  generatedResources:
  - type: 6
    amount: 1
  generationCost: []
